<svg width="1280" height="960" xmlns="http://www.w3.org/2000/svg">
 <!-- Created with Method Draw - http://github.com/duopixel/Method-Draw/ -->

 <g>
  <title>background</title>
  <rect x="-1" y="-1" width="1282" height="962" id="canvas_background" fill="#ffffff"/>
  <g id="canvasGrid" display="none">
   <rect id="svg_1" width="100%" height="100%" x="0" y="0" stroke-width="0" fill="url(#gridpattern)"/>
  </g>
 </g>
 <g>
  <title>Layer 1</title>
  <path stroke="#bfbfbf" transform="rotate(90 440.09613037109375,377.3004760742188) " id="svg_128" d="m411.373542,377.300273l16.654839,-19.680958l0,9.840453l24.137218,0l0,-9.840453l16.654831,19.680958l-16.654831,19.680854l0,-9.840428l-24.137218,0l0,9.840428l-16.654839,-19.680854z" fill-opacity="null" stroke-width="3" fill="none"/>
  <rect rx="11" stroke="#000000" id="svg_22" height="533.999983" width="914.000028" y="413" x="344.308505" opacity="0.85" fill-opacity="null" stroke-width="3" fill="none"/>
  <rect id="svg_47" height="298" width="220" y="565" x="447.86134" fill-opacity="null" stroke-opacity="null" stroke-width="3" stroke="#000000" fill="none"/>
  <path fill="none" stroke="#000000" stroke-width="4" d="m266.080125,153.33226l-15.899311,-15.857025l0,-37.871463l-13.630207,0l0,24.277509l-31.803815,-31.719228l-61.333333,61.170207l14.601197,-0.34697l0,61.843432l92.815216,0l0,-61.496462l15.250254,0l-0.000001,0zm-61.333333,52.651329l-30.287617,0l0,-36.250546l30.287617,0l0,36.250546zm29.425669,-15.535948l-19.902698,0l0,-20.932101l19.902698,0l0,20.932101z" id="svg_18"/>
  <path fill="none" stroke="#000000" stroke-width="4" d="m118.082413,154.401706c0,0 3.192156,-14.407868 0,-19.288483c-3.195916,-4.880614 -4.470523,-8.13162 -11.497778,-10.459045s-4.466763,-1.863582 -9.576469,-1.625503c-5.109706,0.233974 -9.369674,3.251006 -9.369674,4.876509c0,0 -3.192156,0.233974 -4.466763,1.629608c-1.278366,1.395634 -3.406471,7.897646 -3.406471,9.527254s1.064052,12.552496 2.128104,14.875816l-1.267087,0.463843c-1.064052,13.476078 4.256208,15.105685 4.256208,15.105685c1.91379,12.552496 3.831339,7.208039 3.831339,10.459045s-1.91755,2.093451 -1.91755,2.093451s-1.699475,5.110483 -5.955684,6.96996c-4.256208,1.855372 -27.883428,11.84647 -29.804738,13.939921c-1.92131,2.097556 -1.703235,11.854679 -1.703235,11.854679l101.318061,0c0,0 0.221834,-9.757123 -1.699475,-11.854679c-1.925069,-2.097556 -25.55229,-12.084548 -29.808498,-13.939921c-4.256208,-1.859477 -5.955684,-6.96996 -5.955684,-6.96996s-1.91755,1.157555 -1.91755,-2.093451s1.91755,2.093451 3.835099,-10.459045c0,0 5.3165,-1.629608 4.256208,-15.105685l-1.278366,0l0.000003,0.000001z" id="svg_19"/>
  <path fill="none" stroke="#d3d3d3" stroke-width="4" fill-opacity="null" d="m367.689029,341.651277c-25.039955,0 -45.348545,-19.298628 -45.348545,-43.093326l0,0c0.015116,-19.097526 13.10573,-35.1857 31.192241,-40.823744l0,0c0.627322,-16.231819 14.640022,-29.188546 31.864911,-29.20291l0,0c5.517406,0 10.694699,1.364622 15.191763,3.713208l0,0c9.568543,-15.118575 26.982385,-25.252689 46.920628,-25.259871l0,0c29.831785,0.014364 54.093257,22.659907 54.781043,50.842942l0,0c17.852211,5.774506 30.700965,21.790858 30.716081,40.730375l0,0c0,23.794698 -20.30859,43.093326 -45.348545,43.093326l0,0l-119.969577,0l0,0zm125.471867,-71.283543c-3.862184,-0.682311 -6.530191,-4.036408 -6.159844,-7.749616l0,0c0.128488,-1.22816 0.204068,-2.413226 0.204068,-3.569564l0,0c-0.052907,-20.821259 -17.77663,-37.670749 -39.687535,-37.699478l0,0c-16.998146,-0.014364 -31.456774,10.184389 -37.117784,24.491373l0,0c-0.922087,2.319857 -3.068585,4.050773 -5.653452,4.524799l0,0c-2.569751,0.474027 -5.245315,-0.373475 -7.00635,-2.219306l0,0c-3.144166,-3.253546 -7.452278,-5.250204 -12.342362,-5.250204l0,0c-9.258661,0.014364 -16.748729,7.131945 -16.778962,15.930166l0,0c0,0.976782 0.128488,1.982293 0.340114,3.045262l0,0c0.370346,1.910471 -0.060465,3.878399 -1.231969,5.472852l0,0c-1.171504,1.601635 -2.962772,2.664604 -4.965666,2.973439l0,0c-14.360373,2.248035 -25.334721,13.998149 -25.319605,28.233311l0,0c0.030232,15.865526 13.544099,28.692973 30.239922,28.736066l0,0l119.977135,0c16.695823,-0.043093 30.187015,-12.87054 30.224805,-28.736066l0,0c0.030232,-14.055606 -10.656908,-25.712351 -24.722515,-28.183035l0,0" id="svg_20"/>
  <path fill="none" stroke="#000000" stroke-width="4" fill-opacity="null" d="m878.75844,139.466292c-5.734894,-2.155819 -8.024798,-8.080753 -8.024798,-8.080753s-2.583742,1.342033 -2.583742,-2.427081s2.583742,2.427081 5.167484,-12.125889c0,0 7.163551,-1.889316 5.734894,-17.513057l-1.722495,0c0,0 4.30117,-16.70403 0,-22.362461c-4.306236,-5.658431 -6.023665,-9.427545 -15.492319,-12.125889s-6.018599,-2.160578 -12.903511,-1.884557c-6.884912,0.271262 -12.624872,3.769115 -12.624872,5.653672c0,0 -4.30117,0.271262 -6.018599,1.889316c-1.722495,1.618054 -4.589941,9.156283 -4.589941,11.0456s1.433723,14.55297 2.867447,17.246554l-1.707296,0.537765c-1.433723,15.623741 5.734894,17.513057 5.734894,17.513057c2.578676,14.55297 5.162418,8.356774 5.162418,12.125889s-2.583742,2.427081 -2.583742,2.427081s-2.289905,5.924934 -8.024798,8.080753c-5.734894,2.15106 -37.570646,13.734425 -40.159454,16.161506c-2.588808,2.43184 -2.294971,13.743943 -2.294971,13.743943l136.517827,0c0,0 0.298903,-11.312103 -2.289905,-13.743943c-2.593874,-2.427081 -34.429627,-14.010446 -40.16452,-16.161506l-0.000001,0zm-63.175021,-0.818545c-0.50155,-0.856617 -0.749792,-1.475285 -0.749792,-1.475285s-2.188581,1.137397 -2.188581,-2.055881s2.188581,2.055881 4.377163,-10.274644c0,0 6.074326,-1.599018 4.858448,-14.843268l-1.459054,0c0,0 0.724461,-2.812559 1.20068,-6.348483c-0.020265,-1.465767 0.030397,-3.026713 0.187448,-4.739947l0.192514,-2.027327c-0.106389,-2.34142 -0.542079,-4.468685 -1.580642,-5.834513c-3.647636,-4.792296 -5.10669,-7.990332 -13.126422,-10.274644c-8.019732,-2.284312 -5.10669,-1.832208 -10.937841,-1.599018c-5.836217,0.228431 -10.699731,3.193278 -10.699731,4.797055c0,0 -3.647636,0.228431 -5.10669,1.599018c-1.372929,1.289684 -3.571643,6.957633 -3.835083,8.970683l0,1.337274c0.23811,3.107616 1.307069,11.654749 2.376029,13.667799l-1.448922,0.456862c-1.210812,13.24425 4.858448,14.843268 4.858448,14.843268c2.188581,12.330525 4.377163,7.081367 4.377163,10.274644s-2.188581,2.055881 -2.188581,2.055881s-1.940339,5.030245 -6.803854,6.848177c-0.309036,0.114216 -0.704196,0.266503 -1.175349,0.437826l0,24.908517l2.913042,0c-0.146919,-6.08198 0.390094,-13.929543 3.779356,-17.103785c1.803553,-1.689439 7.715762,-4.468685 32.180251,-13.620209zm113.127364,-43.09735c-0.202646,-1.798896 -0.643402,-3.402673 -1.479319,-4.501998c-3.642569,-4.797055 -5.10669,-7.990332 -13.121356,-10.274644c-8.024798,-2.284312 -5.10669,-1.832208 -10.942907,-1.599018c-5.831151,0.228431 -10.694665,3.193278 -10.694665,4.797055c0,0 -3.642569,0.228431 -5.10669,1.599018c-1.372929,1.294443 -3.591908,7.005223 -3.84015,8.999237l0.167183,0l0.405293,4.344951c0.101323,1.099325 0.111456,2.074917 0.136786,3.069544c0.455954,3.169483 1.063894,6.424627 1.671833,7.562024l-1.448922,0.456862c-1.210812,13.24425 4.863514,14.843268 4.863514,14.843268c2.188581,12.330525 4.372097,7.081367 4.372097,10.274644s-2.188581,2.055881 -2.188581,2.055881s-0.268507,0.675776 -0.825784,1.608536c24.165586,9.042068 30.027133,11.802278 31.810422,13.486958c3.394328,3.174242 3.926274,11.017046 3.779356,17.103785l2.431757,0l0,-25.251164c-0.081059,-0.028554 -0.192514,-0.071385 -0.26344,-0.099939c-4.858448,-1.82269 -6.803854,-6.848177 -6.803854,-6.848177s-2.193647,1.137397 -2.193647,-2.055881s2.193647,2.055881 4.377163,-10.274644c0,0 4.073193,-1.089807 4.878713,-8.761288l0,-5.839272c-0.005066,-0.085662 -0.005066,-0.157046 -0.015198,-0.242708l-1.46412,0c0,0 1.089225,-4.235495 1.479319,-8.856467l0,-5.596564l0.015198,0l-0.000001,0.000001z" id="svg_21"/>
  <path id="svg_4" opacity="0.5" fill-opacity="null" stroke-width="4" stroke="#000000" fill="none"/>
  <path id="svg_5" d="m651.073659,170.481496c-9.310036,0 -16.902939,6.896736 -16.902939,15.349269s7.592902,15.349269 16.902939,15.349269c9.310036,0 16.902939,-6.896736 16.902939,-15.349269s-7.592902,-15.349269 -16.902939,-15.349269zm42.873381,15.276538c-1.193263,-5.752023 -3.453671,-9.651003 -5.584728,-12.632948c0.161689,0.407922 0.29104,0.819007 0.446261,1.22693c-7.567032,-20.095715 -37.848096,-30.989459 -61.237986,-17.17069c-0.181091,0.853791 -0.236066,1.701258 -0.236066,2.5424c0,-0.161272 -0.019403,-0.309895 -0.012935,-0.474328c-5.636469,-0.423733 -12.462967,6.517273 -18.532761,19.2356c-3.081787,7.200306 -4.197439,15.083645 -1.338783,24.326725c1.668628,5.394696 4.294452,10.928527 8.081202,15.222781c11.224431,12.734138 28.418409,17.929615 38.430175,15.289187c0.012935,0.003162 0.029104,0.009487 0.045273,0.012649c19.302399,-0.395274 33.935229,-13.369738 39.209515,-30.258993c1.898226,-6.096702 2.021109,-11.086637 0.730833,-17.319313zm-75.967828,30.21156c-3.104423,-3.516355 -5.675274,-8.382965 -7.434447,-14.078068c-2.370357,-7.652499 -1.97907,-14.704182 1.2256,-22.182761c3.253177,-6.808194 6.428744,-11.282693 9.161283,-13.973716c0.485066,2.346345 1.684796,5.148045 3.599191,8.37664c0.704963,1.19847 1.484302,2.216695 2.237772,3.200136c0.578846,0.749439 1.151224,1.498878 1.658926,2.305236c0.400988,0.638762 0.772872,1.407174 1.144756,2.330534c-0.772872,8.70867 2.884527,16.247331 10.179922,21.120265l-8.23319,7.114927l-0.653222,0.540734c-0.672625,0.540734 -1.445497,1.179497 -2.105187,1.86253c-4.397933,4.566202 -0.808444,8.952159 0.924859,11.061339l0.219897,0.275111c0.766405,0.93917 1.658926,1.960558 2.635526,2.966134c-5.119065,-2.428562 -10.254299,-6.033458 -14.561686,-10.919041zm72.148741,-13.818769c-5.174039,16.544576 -19.198919,27.51105 -35.797883,28.013838c-8.035929,-1.843557 -14.105724,-5.628698 -18.063864,-11.247909c0.012935,-0.012649 0.032338,-0.025298 0.048507,-0.041108l15.987781,-12.13016c7.198382,-0.392112 12.462967,-2.808024 15.674105,-7.203468c3.951672,-4.465012 5.794924,-9.565624 5.47478,-15.371404c5.875768,1.192146 10.959261,2.855457 15.699975,5.954403l0.375118,0.246651l0.433326,0.135974c0.504469,0.154947 1.005704,0.240326 1.484302,0.256137c0.352481,3.921115 -0.067909,7.377388 -1.316146,11.387045zm0.824612,-14.650425c-6.309094,-4.12982 -13.135592,-5.903808 -21.323508,-7.225603c1.717134,7.456443 -0.271637,12.876436 -4.287985,17.429989c-2.852189,3.905304 -7.702851,5.76151 -14.209205,5.929106l-16.880302,12.813193c-1.607186,1.293336 -1.911161,2.589833 -0.911924,3.886331c2.745474,4.038116 6.237951,6.963142 10.095844,9.100782c-0.042039,0 -0.084078,0.006324 -0.126117,0.009487c-0.003234,-0.003162 -0.012935,-0.006324 -0.019403,-0.012649c-0.064675,0.009487 -0.132585,0.012649 -0.200494,0.015811c-0.258702,0.003162 -0.517404,-0.003162 -0.772872,-0.031622c-0.504469,-0.066406 -1.015405,-0.20238 -1.484302,-0.373138c-2.903929,-1.053009 -6.111834,-4.27528 -8.398112,-7.080143c-1.878823,-2.308398 -3.899932,-4.531418 -1.329081,-7.193981c0.834314,-0.863278 1.882057,-1.625365 2.551448,-2.207208l8.152345,-7.048521c0.556209,-0.43322 1.131821,-0.875927 1.730069,-1.337606c0.17139,-0.132812 0.346014,-0.265624 0.523871,-0.401598c1.823849,-1.397688 1.561913,-1.011901 -0.349248,-2.030126c-7.8225,-4.17409 -11.890588,-11.428153 -10.846079,-20.20323c-0.481832,-1.296498 -1.025106,-2.504454 -1.675095,-3.554301c-1.17386,-1.897314 -2.696968,-3.484733 -3.861127,-5.448453c-2.910397,-4.920367 -5.972781,-12.338864 0.042039,-11.643182c-0.016169,-0.167596 -0.006468,-0.347841 -0.016169,-0.518599c0.303975,6.327542 4.93474,12.089051 5.633235,15.456783c0.252234,1.207956 0.95073,2.229344 1.97907,0.885413c8.207319,-10.735634 19.625777,-9.654165 26.930873,-4.148793c1.432562,1.075144 2.211902,2.387453 3.505411,3.510031c0.498001,0.436382 1.060678,0.819007 1.730069,1.109929c2.402694,1.049847 5.84343,0.986603 8.43045,1.37239c4.433505,0.657735 8.753827,1.467256 12.841318,2.567698c0.808444,0.094866 1.37112,-0.012649 1.684796,-0.319381c0.682326,-0.657735 -0.006468,-2.804862 -0.391287,-3.993846c0.895756,2.545563 1.733303,5.087963 2.499708,7.636688c0.585313,1.985855 0.446261,3.589085 -1.248237,3.048351z" fill-opacity="null" stroke-opacity="null" stroke-width="2" stroke="#000000" fill="none"/>
  <path id="svg_6" d="m187.465677,678.093743l-2.870954,-10.441105c0.841359,-0.766882 1.631056,-1.587447 2.376471,-2.465527l10.04096,2.983173c1.05908,-1.602784 1.970552,-3.305263 2.78608,-5.072927l-7.4726,-7.515448c0.357947,-1.104311 0.667921,-2.227794 0.889332,-3.385786l10.070482,-2.622738c0.073803,-0.966272 0.143917,-1.936378 0.143917,-2.925657s-0.073803,-1.95555 -0.143917,-2.921822l-10.070482,-2.622738c-0.225101,-1.157993 -0.535075,-2.281475 -0.889332,-3.385786l7.47629,-7.515448c-0.819218,-1.76383 -1.730691,-3.470143 -2.789771,-5.072927l-10.04096,2.979338c-0.741725,-0.874246 -1.535112,-1.69481 -2.376471,-2.465527l2.870954,-10.43727c-1.542492,-1.096642 -3.184619,-2.047576 -4.885789,-2.894981l-7.232739,7.768519c-1.05908,-0.371938 -2.14399,-0.690194 -3.258423,-0.924093l-2.520388,-10.467946c-0.933614,-0.072854 -1.863537,-0.149542 -2.815602,-0.149542s-1.881988,0.076688 -2.811912,0.149542l-2.524078,10.467946c-1.114432,0.233899 -2.195653,0.552155 -3.258423,0.924093l-7.232739,-7.768519c-1.697479,0.858908 -3.335916,1.806008 -4.878408,2.906485l2.870954,10.43727c-0.841359,0.766882 -1.634747,1.591281 -2.372781,2.461693l-10.04465,-2.983173c-1.05908,1.602784 -1.970552,3.309098 -2.78608,5.076762l7.47629,7.515448c-0.354257,1.104311 -0.664231,2.227794 -0.889332,3.385786l-10.074172,2.622738c-0.070113,0.966272 -0.143917,1.936378 -0.143917,2.921822s0.073803,1.95555 0.143917,2.925657l10.074172,2.622738c0.225101,1.157993 0.535075,2.281475 0.889332,3.385786l-7.47629,7.515448c0.815528,1.76383 1.727001,3.470143 2.78608,5.072927l10.04465,-2.983173c0.738035,0.87808 1.531422,1.69481 2.372781,2.465527l-2.870954,10.441105c1.542492,1.096642 3.184619,2.043742 4.882099,2.894981l7.232739,-7.768519c1.06277,0.371938 2.14399,0.694029 3.258423,0.924093l2.524078,10.464111c0.929924,0.076688 1.863537,0.149542 2.815602,0.149542s1.881988,-0.076688 2.815602,-0.149542l2.520388,-10.464111c1.114432,-0.233899 2.199343,-0.55599 3.258423,-0.924093l7.232739,7.768519c1.693789,-0.858908 3.335916,-1.806008 4.878408,-2.90265zm-20.70925,-18.409013c-6.926454,0 -12.542897,-5.835975 -12.542897,-13.033167s5.616443,-13.029333 12.542897,-13.029333s12.539207,5.832141 12.539207,13.029333s-5.612753,13.033167 -12.539207,13.033167zm57.168157,27.243499c0.070113,-2.097424 -0.22141,-4.233191 -0.84874,-6.342118l4.590575,-6.798413c-0.693752,-1.342044 -1.476069,-2.615069 -2.365401,-3.773062l-7.830547,1.706313c-1.579394,-1.395726 -3.376508,-2.484699 -5.299088,-3.263085l-2.254696,-7.971743c-1.424407,-0.26074 -2.867264,-0.402613 -4.328573,-0.406448l-3.594228,7.423422c-1.029558,0.207058 -2.059116,0.490805 -3.070224,0.893418c-0.948374,0.375772 -1.834016,0.843571 -2.682756,1.353548l-7.402487,-3.140384c-1.095981,1.004616 -2.096018,2.089755 -3.00011,3.266919l3.346987,7.546123c-0.955755,1.898034 -1.612606,3.941776 -1.9152,6.077543l-6.978117,4.064477c0.070113,1.487752 0.280453,2.975504 0.605188,4.46709l7.764124,1.99006c0.85243,2.009232 1.996383,3.807571 3.380198,5.341336l-1.298941,8.197973c1.180855,0.881915 2.435514,1.641128 3.738145,2.300647l6.328646,-5.061424c1.977933,0.540652 4.04812,0.74771 6.133067,0.575162l5.358131,6.161901c0.738035,-0.218561 1.472379,-0.452461 2.199343,-0.740042c0.64578,-0.253071 1.254659,-0.552155 1.863537,-0.855074l0.136536,-8.301503c1.679029,-1.299866 3.110816,-2.864306 4.251079,-4.624301l7.974463,-0.513811c0.560906,-1.376554 1.029558,-2.80679 1.357984,-4.27537l-6.158898,-5.299158zm-15.362189,7.695665c-4.431898,1.756161 -9.39149,-0.552155 -11.085279,-5.157285s0.527695,-9.762414 4.959592,-11.522409c4.431898,-1.756161 9.39887,0.552155 11.092659,5.157285c1.690099,4.605129 -0.535075,9.762414 -4.966973,11.522409z" fill-opacity="null" stroke-opacity="null" stroke-width="2" stroke="#000000" fill="none"/>
  <text xml:space="preserve" text-anchor="start" font-family="Helvetica, Arial, sans-serif" font-size="24" id="svg_7" y="742.446735" x="110.180842" fill-opacity="null" stroke-opacity="null" stroke-width="0" stroke="#000000" fill="#000000">Gitlab Runner</text>
  <path id="svg_10" d="m200.845873,427.242706c-0.010246,-6.966241 -4.590096,-12.610537 -10.243189,-12.620002l0,-0.003155l-31.395541,0c-1.293526,-5.117411 -5.151051,-8.859242 -9.74627,-8.868707l-7.364133,0c-5.655654,0.00631 -10.238066,5.653761 -10.248312,12.620002l0,44.763148c0.010246,6.959931 4.592658,12.604227 10.248312,12.616847l48.508506,0c5.64797,-0.01262 10.232943,-5.656916 10.243189,-12.616847l0,-35.891286l-0.002561,0zm-58.749134,-15.185018l7.364133,0c2.679264,-0.01262 4.910276,2.63127 5.079331,5.918781l0.148563,2.956236l35.916479,0c2.799651,0.00631 5.115191,2.858431 5.120314,6.310001l0,1.561725c-1.51381,-1.088475 -3.247903,-1.757335 -5.122875,-1.76049l-48.508506,0c-1.874972,0.003155 -3.611627,0.67517 -5.122875,1.763645l0,-10.439897c0.007684,-3.451571 2.323224,-6.303691 5.125437,-6.310001zm48.505945,57.38315l-48.505945,0c-2.799651,-0.00631 -5.115191,-2.864741 -5.125437,-6.310001l0,-23.466894l0.002561,0c0.005123,-3.454726 2.320663,-6.306846 5.122875,-6.313156l48.508506,0c2.799651,0.00631 5.099822,2.842656 5.122875,6.281606l0,23.495289c-0.010246,3.454726 -2.325785,6.306846 -5.125437,6.313156z" fill-opacity="null" stroke-opacity="null" stroke-width="2" stroke="#000000" fill="none"/>
  <path stroke="#000000" id="svg_11" d="m225.017547,419.992992c-2.521809,0 -4.565223,1.983316 -4.565223,4.430957c0,2.446506 2.043414,4.430957 4.565223,4.430957c0.577817,0 1.125223,-0.115798 1.634029,-0.306523l0.977844,1.458821l1.589582,-1.004714l-0.971996,-1.448604c0.824618,-0.8015 1.335763,-1.908388 1.335763,-3.129938c0,-2.447641 -2.043414,-4.430957 -4.565223,-4.430957zm-0.017545,-11.992988c-9.388943,0 -16.999988,7.3872 -16.999988,16.500009c0,9.112809 7.611044,16.500009 16.999988,16.500009c9.388943,0 16.999988,-7.3872 16.999988,-16.500009c0,-9.112809 -7.611044,-16.500009 -16.999988,-16.500009zm11.900225,21.959521c-0.281891,0.572176 -0.600041,1.123917 -0.966148,1.646141l-3.693819,-0.770848c-0.562611,0.597152 -1.203591,1.128458 -1.911241,1.572348l0.139191,3.635133c-0.593023,0.261112 -1.202421,0.477949 -1.835213,0.647104l-2.286705,-2.854068c-0.435117,0.057899 -0.877253,0.097633 -1.328745,0.097633c-0.416403,0 -0.825787,-0.032923 -1.229323,-0.08401l-2.275009,2.838174c-0.632792,-0.171426 -1.245699,-0.388262 -1.836382,-0.645968l0.136851,-3.571558c-0.741571,-0.451837 -1.412962,-0.999037 -2.002475,-1.62003l-3.595566,0.747007c-0.366107,-0.517683 -0.681918,-1.071695 -0.966148,-1.64387l2.442272,-2.621338c-0.264345,-0.798095 -0.414063,-1.647276 -0.450323,-2.523704l-3.237647,-1.662035c0.064332,-0.639157 0.192996,-1.256743 0.352071,-1.865248l3.607263,-0.48476c0.339204,-0.796959 0.789527,-1.534885 1.327576,-2.204694l-1.38255,-3.293417c0.466698,-0.44162 0.970826,-0.844641 1.500687,-1.214739l3.114832,1.898171c0.760286,-0.382586 1.577885,-0.673215 2.438762,-0.851452l1.132241,-3.406944c0.325168,-0.023841 0.649167,-0.047681 0.979014,-0.047681c0.329847,0 0.655015,0.024976 0.979014,0.047681l1.141598,3.437596c0.842163,0.185049 1.638708,0.472272 2.381449,0.851452l3.162788,-1.926553c0.5322,0.370098 1.037498,0.773119 1.503026,1.214739l-1.422319,3.389915c0.500619,0.640292 0.927549,1.340753 1.249208,2.094572l3.7254,0.500654c0.157905,0.607369 0.288909,1.227226 0.35324,1.865248l-3.353445,1.721069c-0.039769,0.824206 -0.175451,1.623436 -0.415233,2.384066l2.521809,2.704212z" fill-opacity="null" stroke-opacity="null" stroke-width="2" fill="none"/>
  <path id="svg_12" d="m224.459859,444.762711c-8.836658,0 -15.999998,7.163341 -15.999998,16c0,8.836659 7.16334,16 15.999998,16c8.836658,0 15.999998,-7.163341 15.999998,-16c0,-8.836659 -7.16334,-16 -15.999998,-16zm9.231869,14.863905c-1.597358,1.837347 -4.079812,2.445025 -6.258428,1.745975l-7.91303,9.099766c-0.843264,0.968763 -2.310719,1.067841 -3.279482,0.225678s-1.071143,-2.31072 -0.22898,-3.279483l7.924039,-9.109674c-0.983074,-2.053117 -0.723269,-4.58401 0.866382,-6.411449c1.504885,-1.733865 3.801293,-2.367965 5.887436,-1.842851l-3.031787,3.535985l0.991881,2.885372l2.996559,0.582359l3.039493,-3.544791c0.823448,1.996973 0.52071,4.372643 -0.994083,6.113114z" fill-opacity="null" stroke-opacity="null" stroke-width="2" stroke="#000000" fill="none"/>
  <text xml:space="preserve" text-anchor="start" font-family="Helvetica, Arial, sans-serif" font-size="24" id="svg_13" y="512" x="154.5" fill-opacity="null" stroke-opacity="null" stroke-width="0" stroke="#000000" fill="#000000">Gitlab</text>
  <text xml:space="preserve" text-anchor="start" font-family="Helvetica, Arial, sans-serif" font-size="24" id="svg_14" y="244" x="108.5" fill-opacity="null" stroke-opacity="null" stroke-width="0" stroke="#000000" fill="#000000">Developer</text>
  <text xml:space="preserve" text-anchor="start" font-family="Helvetica, Arial, sans-serif" font-size="24" id="svg_15" y="203" x="832.5" fill-opacity="null" stroke-opacity="null" stroke-width="0" stroke="#000000" fill="#000000">Users</text>
  <text xml:space="preserve" text-anchor="start" font-family="Helvetica, Arial, sans-serif" font-size="24" id="svg_16" y="261" x="606.5" fill-opacity="null" stroke-opacity="null" stroke-width="0" stroke="#000000" fill="#000000">Chrome</text>
  <text xml:space="preserve" text-anchor="start" font-family="Helvetica, Arial, sans-serif" font-size="24" id="svg_17" y="315" x="414.5" stroke-width="0" stroke="#c9c9c9" fill="#d3d3d3">Web</text>
  <text xml:space="preserve" text-anchor="start" font-family="Helvetica, Arial, sans-serif" font-size="24" id="svg_23" y="404" x="959.5" fill-opacity="null" stroke-width="0" stroke="#000000" fill="#000000">Production Server Instance</text>
  <text xml:space="preserve" text-anchor="start" font-family="Helvetica, Arial, sans-serif" font-size="24" id="svg_24" y="463" x="382.5" fill-opacity="null" stroke-opacity="null" stroke-width="0" stroke="#000000" fill="#000000">nginx-proxy</text>
  <line stroke="#000000" stroke-linecap="null" stroke-linejoin="null" id="svg_28" y2="494" x2="547.499998" y1="495" x1="345.5" fill-opacity="null" stroke-opacity="null" stroke-width="3" fill="none"/>
  <line stroke-linecap="null" stroke-linejoin="null" id="svg_29" y2="493" x2="545.5" y1="412" x1="544.5" fill-opacity="null" stroke-opacity="null" stroke-width="3" stroke="#000000" fill="none"/>
  <rect id="svg_30" height="48" width="131" y="594" x="486.371993" fill-opacity="null" stroke-opacity="null" stroke-width="2" stroke="#000000" fill="none"/>
  <text xml:space="preserve" text-anchor="start" font-family="Helvetica, Arial, sans-serif" font-size="24" id="svg_31" y="625" x="522.371993" fill-opacity="null" stroke-opacity="null" stroke-width="0" stroke="#000000" fill="#000000">nginx</text>
  <rect id="svg_36" height="48" width="131" y="690" x="486.371993" fill-opacity="null" stroke-opacity="null" stroke-width="2" stroke="#000000" fill="none"/>
  <rect id="svg_37" height="48" width="131" y="784" x="486.371993" fill-opacity="null" stroke-opacity="null" stroke-width="2" stroke="#000000" fill="none"/>
  <text xml:space="preserve" text-anchor="start" font-family="Helvetica, Arial, sans-serif" font-size="24" id="svg_38" y="816" x="507.371993" fill-opacity="null" stroke-opacity="null" stroke-width="0" stroke="#000000" fill="#000000">postgres</text>
  <text style="cursor: move;" xml:space="preserve" text-anchor="start" font-family="Helvetica, Arial, sans-serif" font-size="24" id="svg_25" y="722" x="529.691151" fill-opacity="null" stroke-opacity="null" stroke-width="0" stroke="#000000" fill="#000000">app</text>
  <path id="svg_39" d="m410.134755,390.629389c0.028638,-0.332198 0.045217,-0.667803 0.045217,-1.006815c0,-5.880755 -4.217277,-10.647369 -9.420294,-10.647369c-4.037915,0 -7.472931,2.877345 -8.812873,6.914827c-0.887768,-1.100512 -2.153856,-1.80409 -3.57519,-1.80409c-2.679885,0 -4.851828,2.454857 -4.851828,5.483821c0,0.357752 0.034667,0.706985 0.093449,1.044294c-3.57519,0.666099 -6.310843,4.149919 -6.310843,8.378202c0,4.705285 3.374726,8.517895 7.536235,8.517895l5.130669,0l-1.065624,-1.20443c-0.568232,-0.642249 -0.881739,-1.497446 -0.881739,-2.407157c0,-0.908008 0.313507,-1.763204 0.881739,-2.405454l0.838029,-0.948894c0.602899,-0.679728 1.41229,-1.069848 2.21716,-1.069848c0.040696,0 0.081391,0 0.12058,0.003407l0,-0.804089c0,-1.880751 1.353508,-3.410565 3.014494,-3.410565l4.922669,0c1.662493,0 3.014494,1.529814 3.014494,3.410565l0,0.804089c0.040696,-0.003407 0.081391,-0.003407 0.122087,-0.003407c0.803363,0 1.612754,0.39012 2.215653,1.073255l0.839537,0.940376c1.175653,1.330495 1.175653,3.492337 0,4.817722l-1.064116,1.20443l3.621914,0c4.163016,0 7.536235,-3.81261 7.536235,-8.517895c0.001507,-4.175472 -2.660291,-7.633738 -6.167655,-8.36287zm-4.992002,12.064747l-0.838029,-0.945486c-0.587826,-0.662692 -1.452986,-0.766611 -1.923247,-0.23339c-0.470261,0.531517 -0.856116,0.201022 -0.856116,-0.735946l0,-2.109031c0,-0.936968 -0.679768,-1.703579 -1.507247,-1.703579l-4.921161,0c-0.828986,0 -1.507247,0.766611 -1.507247,1.703579l0,2.109031c0,0.936968 -0.385855,1.267463 -0.857624,0.735946c-0.470261,-0.53322 -1.336928,-0.429302 -1.923247,0.23339l-0.838029,0.945486c-0.587826,0.662692 -0.587826,1.744465 -0.001507,2.407157l6.523365,7.378201c0.292406,0.330494 0.679768,0.495742 1.065624,0.495742s0.77171,-0.165247 1.065624,-0.495742l6.521858,-7.378201c0.586319,-0.660989 0.584812,-1.744465 -0.003014,-2.407157z" fill-opacity="null" stroke-opacity="null" stroke-width="3" stroke="#000000" fill="none"/>
  <path id="svg_40" d="m495.357653,389.638733c0.02717,-0.332181 0.0429,-0.667768 0.0429,-1.006763c0,-5.88045 -4.001158,-10.646817 -8.937539,-10.646817c-3.830987,0 -7.089971,2.877196 -8.361247,6.914469c-0.842274,-1.100455 -2.043479,-1.803997 -3.391975,-1.803997c-2.542551,0 -4.60319,2.45473 -4.60319,5.483537c0,0.357733 0.03289,0.706949 0.08866,1.04424c-3.391975,0.666065 -5.987436,4.149703 -5.987436,8.377767c0,4.705041 3.201784,8.517454 7.150031,8.517454l3.306175,0c-0.180181,-0.453129 -0.286001,-0.947141 -0.286001,-1.463299c0,-0.911368 0.297441,-1.77163 0.839414,-2.410439l6.184777,-7.374411c0.536252,-0.642216 1.254116,-0.996542 2.020599,-0.996542c0.772203,0 1.490067,0.357733 2.026319,0.999949l6.181917,7.374411c0.539112,0.635402 0.836554,1.495665 0.836554,2.407032c0,0.517861 -0.10439,1.011873 -0.286001,1.463299l1.876168,0c3.949677,0 7.150031,-3.812412 7.150031,-8.517454c0.00286,-4.175256 -2.522531,-7.633342 -5.850156,-8.362436zm-10.923818,6.834405c-0.275991,-0.332181 -0.643503,-0.495716 -1.009584,-0.495716s-0.732163,0.163535 -1.011014,0.495716l-6.187637,7.376115c-0.557702,0.662658 -0.556272,1.746078 0.00143,2.408736l0.795084,0.945437c0.557702,0.662658 1.378526,0.764867 1.824688,0.233378s0.812244,-0.202715 0.812244,0.735908l0,2.108922c0,0.935216 0.644933,1.703491 1.430006,1.703491l4.668971,0c0.787933,0 1.430006,-0.768274 1.430006,-1.703491l0,-2.108922c0,-0.938623 0.366082,-1.267397 0.813674,-0.735908c0.446162,0.531489 1.268416,0.42928 1.824688,-0.233378l0.795084,-0.945437c0.557702,-0.662658 0.557702,-1.746078 0.00143,-2.408736l-6.189067,-7.376115z" fill-opacity="null" stroke-opacity="null" stroke-width="3" stroke="#000000" fill="none"/>
  <path id="svg_41" d="m447.716781,376.194552l0,-3.454181l-0.000956,0c-0.001353,-4.263178 -3.452851,-7.717361 -7.710986,-7.717361s-7.711513,3.456035 -7.711513,7.71921l0,0l0,3.452332l-2.788737,0l0,14.828452l21.000022,0l0,-14.828452l-2.787829,0zm-12.987133,-3.452332c0,0 0,0 0,0c0,-2.913044 2.366602,-5.282207 5.275192,-5.282207c2.910446,0 5.277046,2.369163 5.277046,5.280358c0,0 0,0 0,0l0,3.454181l-10.552238,0l0,-3.452332z" fill-opacity="null" stroke-opacity="null" stroke-width="3" stroke="#000000" fill="none"/>
  <path stroke="#000000" id="svg_44" d="m652.239512,799.955056c0,2.669371 -5.148724,4.833324 -11.499998,4.833324m11.499998,-4.833324l0,0c0,2.669371 -5.148724,4.833324 -11.499998,4.833324c-6.351271,0 -11.499994,-2.163949 -11.499994,-4.833324m0,0l0,0c0,-2.669368 5.148723,-4.833322 11.499994,-4.833322c6.351273,0 11.499998,2.163954 11.499998,4.833322l0,19.333302c0,2.669368 -5.148724,4.833315 -11.499998,4.833315c-6.351271,0 -11.499994,-2.163947 -11.499994,-4.833315l0,-19.333302z" fill-opacity="null" stroke-opacity="null" stroke-width="3" fill="none"/>
  <path id="svg_45" d="m635.28034,722.448335l11.22605,0c1.618161,-0.004018 2.722084,-1.830356 2.716695,-3.709247l0,-1.263362c3.203748,-0.003375 5.528117,-3.231127 5.52692,-6.994856c0.001198,-3.830746 -2.277545,-6.977981 -4.92993,-6.975249l-17.303614,0l0,15.233789c0.002515,2.068693 1.330264,3.70523 2.763879,3.708926zm13.942386,-16.077209l0,0l0.59699,0c2.194912,-0.004661 2.898965,2.780971 2.888427,4.130636c0.002156,2.179263 -1.200567,4.269331 -3.485417,4.066512l0,-8.197147zm-22.892209,17.004842c0.002036,2.815846 1.601634,4.121636 2.889145,4.129672l23.22214,0c1.535768,-0.008036 2.88184,-1.628501 2.888666,-4.129672l-28.999952,0z" fill-opacity="null" stroke-opacity="null" stroke-width="3" stroke="#000000" fill="none"/>
  <path stroke="#000000" id="svg_46" d="m627.433474,627.143516c-0.007386,-7.616503 -0.014768,-15.233007 -0.022154,-22.849509c6.66795,0.08754 13.364179,-0.20738 20.009551,0.22479c3.240582,0.987124 2.773569,7.13209 2.720943,11.721902c-0.142155,3.461282 1.893366,10.32286 -3.393586,11.354215c-2.635828,0.000122 -2.646201,0.966343 -2.377159,2.714178c0.31222,2.618479 -0.594181,8.484202 -4.924228,4.766292l-12.013369,-7.931866l0.000001,-0.000001zm20.407141,-2.489833c0.010714,-6.846262 -0.078659,-12.687108 -0.52103,-17.197815c-3.930451,-1.534309 -9.241582,-0.787626 -13.688667,-0.810942c-1.748139,0.72969 4.146873,3.152613 5.397148,4.092749c4.746497,2.021439 6.162647,5.69762 5.343015,9.852249c0,1.616132 0,3.232269 0,4.848402c0.875297,-0.000909 2.686152,-0.373096 3.469535,-0.784648l-0.000001,0.000004z" fill-opacity="null" stroke-opacity="null" stroke-width="3" fill="none"/>
  <path stroke="#000000" id="svg_48" d="m652.239512,889.955056c0,2.669371 -5.148724,4.833324 -11.499998,4.833324m11.499998,-4.833324l0,0c0,2.669371 -5.148724,4.833324 -11.499998,4.833324c-6.351271,0 -11.499993,-2.163949 -11.499993,-4.833324m0,0l0,0c0,-2.669368 5.148722,-4.833322 11.499993,-4.833322c6.351274,0 11.499998,2.163954 11.499998,4.833322l0,19.333303c0,2.669368 -5.148724,4.833315 -11.499998,4.833315c-6.351271,0 -11.499993,-2.163947 -11.499993,-4.833315l0,-19.333303z" fill-opacity="null" stroke-opacity="null" stroke-width="3" fill="none"/>
  <text font-weight="bold" xml:space="preserve" text-anchor="start" font-family="Helvetica, Arial, sans-serif" font-size="15" id="svg_49" y="881" x="457.371993" fill-opacity="null" stroke-opacity="null" stroke-width="0" stroke="#000000" fill="#000000">docker-compose</text>
  <text font-weight="bold" xml:space="preserve" text-anchor="start" font-family="Helvetica, Arial, sans-serif" font-size="15" id="svg_50" y="930" x="579.371993" fill-opacity="null" stroke-opacity="null" stroke-width="0" stroke="#000000" fill="#000000">database volume</text>
  <text font-weight="bold" xml:space="preserve" text-anchor="start" font-family="Helvetica, Arial, sans-serif" font-size="15" id="svg_51" y="559" x="630.797508" fill-opacity="null" stroke-opacity="null" stroke-width="0" stroke="#000000" fill="#000000">app1</text>
  <path stroke="#bfbfbf" transform="rotate(33 301.6240844726562,240.56057739257812) " id="svg_58" d="m271.246398,240.560629l17.614012,-18.085191l0,9.042571l25.527311,0l0,-9.042571l17.614004,18.085191l-17.614004,18.085094l0,-9.042548l-25.527311,0l0,9.042548l-17.614012,-18.085094z" fill-opacity="null" stroke-width="3" fill="none"/>
  <path stroke="#bfbfbf" transform="rotate(-43 283.70394897460943,372.5372009277344) " id="svg_59" d="m248.736819,372.537248l20.275143,-18.08519l0,9.042571l29.383984,0l0,-9.042571l20.275132,18.08519l-20.275132,18.085095l0,-9.042549l-29.383984,0l0,9.042549l-20.275143,-18.085095z" fill-opacity="null" stroke-width="3" fill="none"/>
  <path stroke="#bfbfbf" transform="rotate(90 181.5859069824218,564.5346069335939) " id="svg_60" d="m152.862464,564.534637l16.654839,-19.680959l0,9.840453l24.137218,0l0,-9.840453l16.654831,19.680959l-16.654831,19.680854l0,-9.840428l-24.137218,0l0,9.840428l-16.654839,-19.680854z" fill-opacity="null" stroke-width="3" fill="none"/>
  <path stroke="#b7b7b7" transform="rotate(90 292.9255981445312,662.1030273437501) " id="svg_63" d="m274.84049,662.004693l18.085128,-40.859194l18.085128,40.859194l-9.042564,0l0,41.0558l-18.085126,0l0,-41.0558l-9.042564,0z" fill-opacity="null" stroke-width="3" fill="none"/>
  <path id="svg_43" d="m297.716782,670.024275l0,-3.454181l-0.000957,0c-0.001353,-4.263179 -3.452851,-7.717361 -7.710986,-7.717361s-7.711513,3.456035 -7.711513,7.71921l0,0l0,3.452332l-2.788737,0l0,14.828452l21.000022,0l0,-14.828452l-2.787829,0zm-12.987134,-3.452332c0,0 0,0 0,0c0,-2.913044 2.366603,-5.282207 5.275193,-5.282207c2.910446,0 5.277046,2.369163 5.277046,5.280358c0,0 0,0 0,0l0,3.454181l-10.552239,0l0,-3.452332z" fill-opacity="null" stroke-opacity="null" stroke-width="3" stroke="#000000" fill="none"/>
  <text font-weight="bold" xml:space="preserve" text-anchor="start" font-family="Helvetica, Arial, sans-serif" font-size="15" id="svg_62" y="698.93739" x="266.063186" fill-opacity="null" stroke-opacity="null" stroke-width="0" stroke="#000000" fill="#000000">deploy</text>
  <path stroke="#bfbfbf" transform="rotate(90 554.4586181640625,666.1307983398439) " id="svg_64" d="m533.713679,666.130876l12.028492,-17.021371l0,8.510663l17.432431,0l0,-8.510663l12.028486,17.021371l-12.028486,17.021281l0,-8.510641l-17.432431,0l0,8.510641l-12.028492,-17.021281z" fill-opacity="null" stroke-width="3" fill="none"/>
  <path stroke="#bfbfbf" transform="rotate(90 554.4586181640625,761.3436889648439) " id="svg_65" d="m534.24565,761.34375l11.720069,-17.021371l0,8.510662l16.985446,0l0,-8.510662l11.720063,17.021371l-11.720063,17.021281l0,-8.510641l-16.985446,0l0,8.510641l-11.720069,-17.021281z" fill-opacity="null" stroke-width="3" fill="none"/>
  <path stroke="#bfbfbf" transform="rotate(90 640.62890625,856.0247192382814) " id="svg_66" d="m616.160554,856.024766l14.187453,-11.702201l0,5.851084l20.561331,0l0,-5.851084l14.187446,11.702201l-14.187446,11.702139l0,-5.85107l-20.561331,0l0,5.85107l-14.187453,-11.702139z" fill-opacity="null" stroke-width="3" fill="none"/>
  <path stroke="#c6c6c6" transform="rotate(180 515.4891357421875,549.9303588867188) " id="svg_67" d="m458.042035,570.409139l20.38439,-20.478771l0,10.239387l26.870332,0l0,-30.718158l-10.192197,0l20.384387,-20.478771l20.38439,20.478771l-10.192197,0l0,30.718158l26.870336,0l0,-10.239387l20.384387,20.478771l-20.384387,20.478771l0,-10.239387l-74.125055,0l0,10.239387l-20.38439,-20.478771l0.000004,0z" fill-opacity="null" stroke-width="3" fill="none"/>
  <rect id="svg_69" height="298" width="220" y="565" x="711.691581" fill-opacity="null" stroke-opacity="null" stroke-width="3" stroke="#000000" fill="none"/>
  <rect id="svg_70" height="48" width="131" y="594" x="741.691581" fill-opacity="null" stroke-opacity="null" stroke-width="2" stroke="#000000" fill="none"/>
  <text xml:space="preserve" text-anchor="start" font-family="Helvetica, Arial, sans-serif" font-size="24" id="svg_71" y="625" x="777.691581" fill-opacity="null" stroke-opacity="null" stroke-width="0" stroke="#000000" fill="#000000">nginx</text>
  <rect id="svg_72" height="48" width="131" y="690" x="741.691581" fill-opacity="null" stroke-opacity="null" stroke-width="2" stroke="#000000" fill="none"/>
  <rect id="svg_73" height="48" width="131" y="784" x="741.691581" fill-opacity="null" stroke-opacity="null" stroke-width="2" stroke="#000000" fill="none"/>
  <text xml:space="preserve" text-anchor="start" font-family="Helvetica, Arial, sans-serif" font-size="24" id="svg_74" y="816" x="762.691581" fill-opacity="null" stroke-opacity="null" stroke-width="0" stroke="#000000" fill="#000000">postgres</text>
  <text style="cursor: move;" xml:space="preserve" text-anchor="start" font-family="Helvetica, Arial, sans-serif" font-size="24" id="svg_75" y="722" x="787.138403" fill-opacity="null" stroke-opacity="null" stroke-width="0" stroke="#000000" fill="#000000">app</text>
  <path stroke="#000000" id="svg_76" d="m907.5591,799.955056c0,2.669371 -5.148724,4.833324 -11.499997,4.833324m11.499997,-4.833324l0,0c0,2.669371 -5.148724,4.833324 -11.499997,4.833324c-6.351272,0 -11.499994,-2.163949 -11.499994,-4.833324m0,0l0,0c0,-2.669368 5.148722,-4.833322 11.499994,-4.833322c6.351273,0 11.499997,2.163954 11.499997,4.833322l0,19.333303c0,2.669368 -5.148724,4.833315 -11.499997,4.833315c-6.351272,0 -11.499994,-2.163947 -11.499994,-4.833315l0,-19.333303z" fill-opacity="null" stroke-opacity="null" stroke-width="3" fill="none"/>
  <path id="svg_77" d="m890.599928,722.448335l11.22605,0c1.618161,-0.004018 2.722084,-1.830356 2.716695,-3.709247l0,-1.263362c3.203748,-0.003375 5.528117,-3.231128 5.52692,-6.994856c0.001197,-3.830747 -2.277545,-6.977982 -4.92993,-6.97525l-17.303614,0l0,15.233789c0.002515,2.068693 1.330264,3.70523 2.763879,3.708926zm13.942386,-16.077209l0,0l0.59699,0c2.194912,-0.00466 2.898965,2.780972 2.888427,4.130636c0.002155,2.179263 -1.200568,4.269331 -3.485417,4.066512l0,-8.197148zm-22.892209,17.004842c0.002036,2.815846 1.601634,4.121636 2.889145,4.129672l23.22214,0c1.535768,-0.008036 2.88184,-1.628501 2.888666,-4.129672l-28.999951,0z" fill-opacity="null" stroke-opacity="null" stroke-width="3" stroke="#000000" fill="none"/>
  <path stroke="#000000" id="svg_78" d="m882.753062,627.143516c-0.007386,-7.616502 -0.014768,-15.233007 -0.022154,-22.849508c6.66795,0.08754 13.364179,-0.207381 20.00955,0.224789c3.240582,0.987124 2.773569,7.13209 2.720944,11.721902c-0.142155,3.461282 1.893366,10.32286 -3.393586,11.354215c-2.635828,0.000121 -2.646201,0.966343 -2.377159,2.714178c0.312219,2.618479 -0.594182,8.484202 -4.924228,4.766292l-12.013368,-7.931866l0.000001,-0.000002zm20.407141,-2.489833c0.010715,-6.846261 -0.078659,-12.687107 -0.52103,-17.197815c-3.930451,-1.534309 -9.241582,-0.787626 -13.688667,-0.810942c-1.748139,0.72969 4.146873,3.152614 5.397148,4.092749c4.746497,2.021439 6.162647,5.697621 5.343015,9.85225c0,1.616132 0,3.232269 0,4.848402c0.875297,-0.000909 2.686152,-0.373096 3.469536,-0.784648l-0.000002,0.000004z" fill-opacity="null" stroke-opacity="null" stroke-width="3" fill="none"/>
  <path stroke="#000000" id="svg_79" d="m907.5591,889.955056c0,2.669371 -5.148724,4.833324 -11.499998,4.833324m11.499998,-4.833324l0,0c0,2.669371 -5.148724,4.833324 -11.499998,4.833324c-6.351271,0 -11.499993,-2.163949 -11.499993,-4.833324m0,0l0,0c0,-2.669368 5.148722,-4.833322 11.499993,-4.833322c6.351274,0 11.499998,2.163954 11.499998,4.833322l0,19.333303c0,2.669368 -5.148724,4.833315 -11.499998,4.833315c-6.351271,0 -11.499993,-2.163947 -11.499993,-4.833315l0,-19.333303z" fill-opacity="null" stroke-opacity="null" stroke-width="3" fill="none"/>
  <text font-weight="bold" xml:space="preserve" text-anchor="start" font-family="Helvetica, Arial, sans-serif" font-size="15" id="svg_80" y="881" x="712.691581" fill-opacity="null" stroke-opacity="null" stroke-width="0" stroke="#000000" fill="#000000">docker-compose</text>
  <text font-weight="bold" xml:space="preserve" text-anchor="start" font-family="Helvetica, Arial, sans-serif" font-size="15" id="svg_81" y="930" x="834.691581" fill-opacity="null" stroke-opacity="null" stroke-width="0" stroke="#000000" fill="#000000">database volume</text>
  <text style="cursor: move;" font-weight="bold" xml:space="preserve" text-anchor="start" font-family="Helvetica, Arial, sans-serif" font-size="15" id="svg_82" y="559" x="895.691581" fill-opacity="null" stroke-opacity="null" stroke-width="0" stroke="#000000" fill="#000000">app2</text>
  <path stroke="#bfbfbf" transform="rotate(90 809.7779541015625,666.1307983398439) " id="svg_83" d="m789.033267,666.130876l12.028492,-17.021371l0,8.510662l17.432431,0l0,-8.510662l12.028486,17.021371l-12.028486,17.021281l0,-8.510641l-17.432431,0l0,8.510641l-12.028492,-17.021281z" fill-opacity="null" stroke-width="3" fill="none"/>
  <path stroke="#bfbfbf" transform="rotate(90 809.7779541015625,761.3436889648439) " id="svg_84" d="m789.565238,761.34375l11.720069,-17.021371l0,8.510662l16.985446,0l0,-8.510662l11.720063,17.021371l-11.720063,17.021281l0,-8.510641l-16.985446,0l0,8.510641l-11.720069,-17.021281z" fill-opacity="null" stroke-width="3" fill="none"/>
  <path stroke="#bfbfbf" transform="rotate(90 895.9482421875,856.0247192382814) " id="svg_85" d="m871.480142,856.024766l14.187453,-11.702201l0,5.851085l20.561331,0l0,-5.851085l14.187445,11.702201l-14.187445,11.702139l0,-5.851069l-20.561331,0l0,5.851069l-14.187453,-11.702139z" fill-opacity="null" stroke-width="3" fill="none"/>
  <path stroke="#c6c6c6" transform="rotate(180 770.8084716796875,549.9303588867188) " id="svg_86" d="m713.361623,570.409139l20.38439,-20.478771l0,10.239388l26.870332,0l0,-30.718158l-10.192197,0l20.384387,-20.478771l20.38439,20.478771l-10.192197,0l0,30.718158l26.870336,0l0,-10.239388l20.384387,20.478771l-20.384387,20.47877l0,-10.239387l-74.125055,0l0,10.239387l-20.38439,-20.47877l0.000004,0z" fill-opacity="null" stroke-width="3" fill="none"/>
  <rect id="svg_87" height="298" width="220" y="565" x="967.011168" fill-opacity="null" stroke-opacity="null" stroke-width="3" stroke="#000000" fill="none"/>
  <rect id="svg_88" height="48" width="131" y="594" x="997.011168" fill-opacity="null" stroke-opacity="null" stroke-width="2" stroke="#000000" fill="none"/>
  <text xml:space="preserve" text-anchor="start" font-family="Helvetica, Arial, sans-serif" font-size="24" id="svg_89" y="625" x="1033.011168" fill-opacity="null" stroke-opacity="null" stroke-width="0" stroke="#000000" fill="#000000">nginx</text>
  <rect id="svg_90" height="48" width="131" y="690" x="997.011168" fill-opacity="null" stroke-opacity="null" stroke-width="2" stroke="#000000" fill="none"/>
  <rect id="svg_91" height="48" width="131" y="784" x="997.011168" fill-opacity="null" stroke-opacity="null" stroke-width="2" stroke="#000000" fill="none"/>
  <text xml:space="preserve" text-anchor="start" font-family="Helvetica, Arial, sans-serif" font-size="24" id="svg_92" y="816" x="1018.011168" fill-opacity="null" stroke-opacity="null" stroke-width="0" stroke="#000000" fill="#000000">postgres</text>
  <text style="cursor: move;" xml:space="preserve" text-anchor="start" font-family="Helvetica, Arial, sans-serif" font-size="24" id="svg_93" y="722" x="1042.45799" fill-opacity="null" stroke-opacity="null" stroke-width="0" stroke="#000000" fill="#000000">app</text>
  <path stroke="#000000" id="svg_94" d="m1162.878688,799.955056c0,2.669371 -5.148724,4.833324 -11.499997,4.833324m11.499997,-4.833324l0,0c0,2.669371 -5.148724,4.833324 -11.499997,4.833324c-6.351272,0 -11.499994,-2.163949 -11.499994,-4.833324m0,0l0,0c0,-2.669368 5.148722,-4.833322 11.499994,-4.833322c6.351273,0 11.499997,2.163954 11.499997,4.833322l0,19.333303c0,2.669368 -5.148724,4.833315 -11.499997,4.833315c-6.351272,0 -11.499994,-2.163947 -11.499994,-4.833315l0,-19.333303z" fill-opacity="null" stroke-opacity="null" stroke-width="3" fill="none"/>
  <path id="svg_95" d="m1145.919516,722.448335l11.22605,0c1.618161,-0.004018 2.722084,-1.830356 2.716695,-3.709247l0,-1.263362c3.203748,-0.003375 5.528117,-3.231128 5.52692,-6.994856c0.001197,-3.830747 -2.277545,-6.977982 -4.92993,-6.97525l-17.303614,0l0,15.233789c0.002515,2.068693 1.330264,3.70523 2.763879,3.708926zm13.942386,-16.077209l0,0l0.59699,0c2.194912,-0.00466 2.898965,2.780972 2.888427,4.130636c0.002155,2.179263 -1.200568,4.269331 -3.485417,4.066512l0,-8.197148zm-22.892209,17.004842c0.002036,2.815846 1.601634,4.121636 2.889145,4.129672l23.22214,0c1.535768,-0.008036 2.88184,-1.628501 2.888666,-4.129672l-28.999951,0z" fill-opacity="null" stroke-opacity="null" stroke-width="3" stroke="#000000" fill="none"/>
  <path stroke="#000000" id="svg_96" d="m1138.07265,627.143516c-0.007386,-7.616502 -0.014768,-15.233007 -0.022154,-22.849508c6.66795,0.08754 13.364179,-0.207381 20.00955,0.224789c3.240582,0.987124 2.773569,7.13209 2.720944,11.721902c-0.142155,3.461282 1.893366,10.32286 -3.393586,11.354215c-2.635828,0.000121 -2.646201,0.966343 -2.377159,2.714178c0.312219,2.618479 -0.594182,8.484202 -4.924228,4.766292l-12.013368,-7.931866l0.000001,-0.000002zm20.407141,-2.489833c0.010715,-6.846261 -0.078659,-12.687107 -0.52103,-17.197815c-3.930451,-1.534309 -9.241582,-0.787626 -13.688667,-0.810942c-1.748139,0.72969 4.146873,3.152614 5.397148,4.092749c4.746497,2.021439 6.162647,5.697621 5.343015,9.85225c0,1.616132 0,3.232269 0,4.848402c0.875297,-0.000909 2.686152,-0.373096 3.469536,-0.784648l-0.000002,0.000004z" fill-opacity="null" stroke-opacity="null" stroke-width="3" fill="none"/>
  <path stroke="#000000" id="svg_97" d="m1162.878688,889.955056c0,2.669371 -5.148724,4.833324 -11.499998,4.833324m11.499998,-4.833324l0,0c0,2.669371 -5.148724,4.833324 -11.499998,4.833324c-6.351271,0 -11.499993,-2.163949 -11.499993,-4.833324m0,0l0,0c0,-2.669368 5.148722,-4.833322 11.499993,-4.833322c6.351274,0 11.499998,2.163954 11.499998,4.833322l0,19.333303c0,2.669368 -5.148724,4.833315 -11.499998,4.833315c-6.351271,0 -11.499993,-2.163947 -11.499993,-4.833315l0,-19.333303z" fill-opacity="null" stroke-opacity="null" stroke-width="3" fill="none"/>
  <text font-weight="bold" xml:space="preserve" text-anchor="start" font-family="Helvetica, Arial, sans-serif" font-size="15" id="svg_98" y="881" x="968.011168" fill-opacity="null" stroke-opacity="null" stroke-width="0" stroke="#000000" fill="#000000">docker-compose</text>
  <text font-weight="bold" xml:space="preserve" text-anchor="start" font-family="Helvetica, Arial, sans-serif" font-size="15" id="svg_99" y="930" x="1090.011168" fill-opacity="null" stroke-opacity="null" stroke-width="0" stroke="#000000" fill="#000000">database volume</text>
  <text style="cursor: move;" font-weight="bold" xml:space="preserve" text-anchor="start" font-family="Helvetica, Arial, sans-serif" font-size="15" id="svg_100" y="559" x="1141.436683" fill-opacity="null" stroke-opacity="null" stroke-width="0" stroke="#000000" fill="#000000">app_n</text>
  <path stroke="#bfbfbf" transform="rotate(90 1065.0972900390627,666.1307983398439) " id="svg_101" d="m1044.352855,666.130876l12.028492,-17.021371l0,8.510662l17.432431,0l0,-8.510662l12.028486,17.021371l-12.028486,17.021281l0,-8.510641l-17.432431,0l0,8.510641l-12.028492,-17.021281z" fill-opacity="null" stroke-width="3" fill="none"/>
  <path stroke="#bfbfbf" transform="rotate(90 1065.0972900390627,761.3436889648439) " id="svg_102" d="m1044.884826,761.34375l11.720069,-17.021371l0,8.510662l16.985446,0l0,-8.510662l11.720063,17.021371l-11.720063,17.021281l0,-8.510641l-16.985446,0l0,8.510641l-11.720069,-17.021281z" fill-opacity="null" stroke-width="3" fill="none"/>
  <path stroke="#bfbfbf" transform="rotate(90 1151.2675781250002,856.0247192382814) " id="svg_103" d="m1126.79973,856.024766l14.187453,-11.702201l0,5.851085l20.561331,0l0,-5.851085l14.187445,11.702201l-14.187445,11.702139l0,-5.851069l-20.561331,0l0,5.851069l-14.187453,-11.702139z" fill-opacity="null" stroke-width="3" fill="none"/>
  <path stroke="#000000" id="svg_105" d="m210.749399,841.196116c0,6.292523 -13.24572,11.393621 -29.585146,11.393621m29.585146,-11.393621l0,0c0,6.292523 -13.24572,11.393621 -29.585146,11.393621c-16.339419,0 -29.585133,-5.101089 -29.585133,-11.393621m0,0l0,0c0,-6.292516 13.245715,-11.393616 29.585133,-11.393616c16.339426,0 29.585146,5.101101 29.585146,11.393616l0,45.574501c0,6.292516 -13.24572,11.3936 -29.585146,11.3936c-16.339419,0 -29.585133,-5.101084 -29.585133,-11.3936l0,-45.574501z" fill-opacity="null" stroke-opacity="null" stroke-width="2" fill="none"/>
  <path stroke="#bfbfbf" transform="rotate(90 181.58592224121085,787.9390258789064) " id="svg_106" d="m152.862464,787.939276l16.654839,-19.680958l0,9.840453l24.137218,0l0,-9.840453l16.654831,19.680958l-16.654831,19.680854l0,-9.840428l-24.137218,0l0,9.840428l-16.654839,-19.680854z" fill-opacity="null" stroke-width="3" fill="none"/>
  <text xml:space="preserve" text-anchor="start" font-family="Helvetica, Arial, sans-serif" font-size="20" id="svg_107" y="923.29811" x="110.180842" fill-opacity="null" stroke-opacity="null" stroke-width="0" stroke="#000000" fill="#000000">Docker Registry</text>
  <path stroke-dasharray="2,2" id="svg_109" d="m211.807771,867.022791c53.191583,-4.255327 94.681019,-38.29794 123.404473,-84.042702c28.723454,-45.744762 26.595792,-93.617186 61.702237,-132.978958c35.106445,-39.361771 89.36186,-28.723455 89.36186,-28.723455" fill-opacity="null" stroke-width="2" stroke="#c1c1c1" fill="none"/>
  <path id="svg_110" d="m211.807771,869.150454c84.042702,-5.319158 114.89382,-41.489435 150.000265,-77.659711c35.106445,-36.170277 42.553266,-47.872425 71.276721,-63.8299c28.723455,-15.957475 53.191584,-11.702149 53.191584,-11.702149" fill-opacity="null" stroke-dasharray="2,2" stroke-width="2" stroke="#c1c1c1" fill="none"/>
  <path id="svg_111" d="m210.743939,871.278118c78.723543,4.255327 112.766157,-12.76598 139.361948,-23.404297c26.595791,-10.638317 41.489435,-22.340465 77.659712,-31.91495c36.170277,-9.574485 58.510742,-6.38299 58.510742,-6.38299" fill-opacity="null" stroke-opacity="null" stroke-dasharray="2,2" stroke-width="2" stroke="#c1c1c1" fill="none"/>
  <path stroke="#c6c6c6" id="svg_112" d="m578.395118,528.896269l37.627605,-15.957538l0,7.978748l54.532242,0l0,-7.978748l37.627587,15.957538l-37.627587,15.957454l0,-7.978728l-54.532242,0l0,7.978728l-37.627605,-15.957454z" stroke-width="3" fill="none"/>
  <path stroke="#c6c6c6" id="svg_113" d="m833.714706,528.896269l37.627605,-15.957539l0,7.978748l54.532242,0l0,-7.978748l37.627587,15.957539l-37.627587,15.957453l0,-7.978727l-54.532242,0l0,7.978727l-37.627605,-15.957453z" stroke-width="3" fill="none"/>
  <path stroke="#c6c6c6" transform="rotate(90 411.7434692382813,509.703369140625) " id="svg_114" d="m372.913592,531.245969l19.414952,-21.542586l0,10.771293l29.122389,0l0,-32.31388l-9.707471,0l19.414942,-21.542586l19.414942,21.542586l-9.707471,0l0,53.856466l-48.537325,0l0,10.771293l-19.414955,-21.542586l-0.000003,0z" stroke-width="3" fill="none"/>
  <path stroke="#bfbfbf" transform="rotate(-35 566.6830444335939,241.68592834472648) " id="svg_115" d="m531.716035,241.685952l20.275143,-18.08519l0,9.042571l29.383984,0l0,-9.042571l20.275132,18.08519l-20.275132,18.085095l0,-9.042549l-29.383984,0l0,9.042549l-20.275143,-18.085095z" fill-opacity="null" stroke-width="3" fill="none"/>
  <path stroke="#bfbfbf" transform="rotate(-16 737.9600830078125,172.53684997558565) " id="svg_116" d="m702.992925,172.536897l20.275143,-18.08519l0,9.042571l29.383984,0l0,-9.042571l20.275132,18.08519l-20.275132,18.085095l0,-9.042549l-29.383984,0l0,9.042549l-20.275143,-18.085095z" fill-opacity="null" stroke-width="3" fill="none"/>
  <path stroke="#c6c6c6" transform="rotate(-90 1011.7444458007814,550.1289672851564) " id="svg_117" d="m972.914623,571.67157l19.414952,-21.542586l0,10.771293l29.122389,0l0,-32.313879l-9.707471,0l19.414942,-21.542587l19.414942,21.542587l-9.707471,0l0,53.856466l-48.537326,0l0,10.771293l-19.414954,-21.542587l-0.000003,0z" stroke-width="3" fill="none"/>
  <path id="svg_42" d="m295.801922,374.066884l0,-3.454181l-0.000957,0c-0.001353,-4.263179 -3.452851,-7.717361 -7.710986,-7.717361s-7.711513,3.456035 -7.711513,7.71921l0,0l0,3.452332l-2.788737,0l0,14.828452l21.000022,0l0,-14.828452l-2.787829,0zm-12.987134,-3.452332c0,0 0,0 0,0c0,-2.913044 2.366603,-5.282207 5.275193,-5.282207c2.910446,0 5.277046,2.369163 5.277046,5.280358c0,0 0,0 0,0l0,3.454181l-10.552239,0l0,-3.452332z" fill-opacity="null" stroke-opacity="null" stroke-width="3" stroke="#000000" fill="none"/>
  <path stroke="#c6c6c6" id="svg_118" d="m259.245634,454.428056l24.056992,-15.957539l0,7.978748l34.864873,0l0,-7.978748l24.05698,15.957539l-24.05698,15.957453l0,-7.978727l-34.864873,0l0,7.978727l-24.056992,-15.957453z" stroke-width="3" fill="none"/>
  <text font-weight="bold" xml:space="preserve" text-anchor="start" font-family="Helvetica, Arial, sans-serif" font-size="14" id="svg_119" y="489.36255" x="274.57384" stroke-width="0" stroke="#c6c6c6" fill="#000000">analyze</text>
  <text font-weight="bold" xml:space="preserve" text-anchor="start" font-family="Helvetica, Arial, sans-serif" font-size="14" id="svg_120" y="578.72441" x="485.212508" fill-opacity="null" stroke-opacity="null" stroke-width="0" stroke="#000000" fill="#000000">domain1.example.com</text>
  <text style="cursor: move;" font-weight="bold" xml:space="preserve" text-anchor="start" font-family="Helvetica, Arial, sans-serif" font-size="14" id="svg_121" y="578.72441" x="741.595928" fill-opacity="null" stroke-opacity="null" stroke-width="0" stroke="#000000" fill="#000000">domain2.whatever.org</text>
  <text style="cursor: move;" font-weight="bold" xml:space="preserve" text-anchor="start" font-family="Helvetica, Arial, sans-serif" font-size="14" id="svg_122" y="578.72441" x="996.915516" fill-opacity="null" stroke-opacity="null" stroke-width="0" stroke="#000000" fill="#000000">domain_n.hackers.ru</text>
  <text xml:space="preserve" text-anchor="start" font-family="Helvetica, Arial, sans-serif" font-size="14" id="svg_123" y="429.787977" x="1061.809271" fill-opacity="null" stroke-opacity="null" stroke-width="0" stroke="#000000" fill="#000000">123.45.678.9</text>
  <text xml:space="preserve" text-anchor="start" font-family="Helvetica, Arial, sans-serif" font-size="14" id="svg_124" y="714.894849" x="250.105749" fill-opacity="null" stroke-opacity="null" stroke-width="0" stroke="#000000" fill="#000000">123.45.678.9</text>
  <text xml:space="preserve" text-anchor="start" font-family="Helvetica, Arial, sans-serif" font-size="14" id="svg_125" y="638.298983" x="266.063186" fill-opacity="null" stroke-opacity="null" stroke-width="0" stroke="#000000" fill="#000000">ssh/scp</text>
  <text font-weight="bold" xml:space="preserve" text-anchor="start" font-family="Helvetica, Arial, sans-serif" font-size="14" id="svg_126" y="431.91564" x="407.552797" fill-opacity="null" stroke-opacity="null" stroke-width="0" stroke="#000000" fill="#000000">serve https</text>
  <text xml:space="preserve" text-anchor="start" font-family="Helvetica, Arial, sans-serif" font-size="14" id="svg_127" y="432.979472" x="553.297736" fill-opacity="null" stroke-opacity="null" stroke-width="0" stroke="#000000" fill="#000000">nginx-proxy will auto-detect new apps and auto-renew certificates for https</text>
  <text xml:space="preserve" text-anchor="start" font-family="Helvetica, Arial, sans-serif" font-size="14" id="svg_129" y="639.362814" x="66.06283" fill-opacity="null" stroke-opacity="null" stroke-width="0" stroke="#000000" fill="#000000">build app</text>
  <text style="cursor: move;" xml:space="preserve" text-anchor="start" font-family="Helvetica, Arial, sans-serif" font-size="14" id="svg_130" y="660.639446" x="4.360596" fill-opacity="null" stroke-opacity="null" stroke-width="0" stroke="#000000" fill="#000000">and docker images</text>
  <text xml:space="preserve" text-anchor="start" font-family="Helvetica, Arial, sans-serif" font-size="14" id="svg_131" y="681.916078" x="68.190493" fill-opacity="null" stroke-opacity="null" stroke-width="0" stroke="#000000" fill="#000000">run tests</text>
  <text xml:space="preserve" text-anchor="start" font-family="Helvetica, Arial, sans-serif" font-size="14" id="svg_132" y="703.192711" x="79.892641" fill-opacity="null" stroke-opacity="null" stroke-width="0" stroke="#000000" fill="#000000">deploy</text>
  <text style="cursor: move;" xml:space="preserve" text-anchor="start" font-family="Helvetica, Arial, sans-serif" font-size="14" id="svg_133" y="511.70302" x="260.744015" fill-opacity="null" stroke-opacity="null" stroke-width="0" stroke="#000000" fill="#000000">performance</text>
  <text style="cursor: move;" xml:space="preserve" text-anchor="start" font-family="Helvetica, Arial, sans-serif" font-size="14" id="svg_134" y="532.979652" x="260.744015" fill-opacity="null" stroke-opacity="null" stroke-width="0" stroke="#000000" fill="#000000">accessibility</text>
  <text style="cursor: move;" xml:space="preserve" text-anchor="start" font-family="Helvetica, Arial, sans-serif" font-size="14" id="svg_135" y="554.256284" x="255.424857" fill-opacity="null" stroke-opacity="null" stroke-width="0" stroke="#000000" fill="#000000">best practices</text>
  <text font-weight="bold" xml:space="preserve" text-anchor="start" font-family="Helvetica, Arial, sans-serif" font-size="15" id="svg_136" y="507.595103" x="424.393211" fill-opacity="null" stroke-opacity="null" stroke-width="0" stroke="#000000" fill="#000000">docker-compose</text>
 </g>
</svg>